{
  "pager": {
    "page": 1,
    "pageCount": 20,
    "total": 20,
    "pageSize": 1,
    "nextPage": "https://play.dhis2.org/demo/api/users?page=2&pageSize=1"
  },
  "users": [{
    "lastUpdated": "2016-04-06T00:05:57.495",
    "id": "DXyJmlo9rge",
    "href": "https://play.dhis2.org/demo/api/users/DXyJmlo9rge",
    "created": "2015-03-31T13:31:09.324",
    "name": "John Barnes",
    "displayName": "John Barnes",
    "externalAccess": false,
    "surname": "Barnes",
    "email": "john@hmail.com",
    "firstName": "John",
    "access": {
      "read": true,
      "update": true,
      "externalize": false,
      "delete": true,
      "write": true,
      "manage": true
    },
    "userCredentials": {
      "code": "android",
      "lastUpdated": "2016-04-06T00:05:57.493",
      "id": "M0fCOxtkURr",
      "created": "2015-03-31T13:31:09.206",
      "name": "John Barnes",
      "lastLogin": "2015-03-31T13:39:21.777",
      "displayName": "John Barnes",
      "externalAuth": false,
      "externalAccess": false,
      "disabled": false,
      "passwordLastUpdated": "2015-03-31T13:31:09.206",
      "invitation": false,
      "selfRegistered": false,
      "username": "android",
      "userInfo": {
        "id": "DXyJmlo9rge"
      },
      "user": {
        "id": "xE7jOejl9FI"
      },
      "cogsDimensionConstraints": [],
      "catDimensionConstraints": [],
      "translations": [],
      "userGroupAccesses": [],
      "attributeValues": [],
      "userRoles": [{
        "id": "Ufph3mGRmMo"
      }, {
        "id": "Euq3XfEIEbx"
      }, {
        "id": "cUlTcejWree"
      }, {
        "id": "DRdaVRtwmG5"
      }, {
        "id": "jRWSNIHdKww"
      }, {
        "id": "txB7vu1w2Pr"
      }],
      "userAccesses": []
    },
    "teiSearchOrganisationUnits": [],
    "translations": [],
    "organisationUnits": [{
      "id": "DiszpKrYNg8"
    }],
    "dataViewOrganisationUnits": [{
      "id": "YuQRtpLP10I"
    }],
    "userGroupAccesses": [],
    "attributeValues": [],
    "userGroups": [],
    "userAccesses": []
  }]
}
